[
    {
        "id": "sd_fSBMkrTuRPC6wXHh",
        "type": "tab",
        "createdDate": "2019-12-04T10:42:13.097Z",
        "label": "ids",
        "disabled": false,
        "info": "",
        "generateNext": true,
        "serviceName": "ids"
    },
    {
        "id": "sd_7LyjdGvtampMFwsm",
        "type": "HttpIn",
        "z": "sd_fSBMkrTuRPC6wXHh",
        "viewType": "server",
        "nodeType": "start",
        "name": "Login API",
        "path": "/login",
        "uploadpath": "",
        "summary": "",
        "description": "",
        "method": "get",
        "sequenceId": "",
        "consumes": "",
        "produces": "",
        "filetype": "path",
        "acceptFileUpload": false,
        "httpOptions": {
            "/login": {
                "get": {
                    "summary": "",
                    "description": "",
                    "consumes": [],
                    "produces": [],
                    "parameters": [],
                    "responses": {}
                }
            }
        },
        "uploadFileOptions": {},
        "editableListData": {
            "responses": [],
            "params": [],
            "produces": [],
            "consumes": []
        },
        "inputs": 0,
        "outputs": 1,
        "category": "HTTP",
        "x": 92,
        "y": 286.953125,
        "wires": [
            [
                "sd_f0bsvFvwJuouFJXW"
            ]
        ],
        "generateNext": true,
        "serviceName": "ids"
    },
    {
        "id": "sd_JxYMc38DpKTqVglR",
        "type": "Script",
        "z": "sd_fSBMkrTuRPC6wXHh",
        "viewType": "common",
        "nodeType": "flow",
        "name": "Create session details",
        "script": "bh.local.reqParams = {\n    state : crypto.randomBytes(16).toString('hex'),\n    nonce : crypto.randomBytes(16).toString('hex'),\n    isMobile : bh.input.query.isMobile,\n    redirectTo : bh.input.query.redirectTo\n};",
        "x": 618,
        "y": 168.21875,
        "wires": [
            [
                "sd_OMTSr9zbnpmZDAV5"
            ]
        ],
        "generateNext": false,
        "generated": true,
        "serviceName": "ids"
    },
    {
        "id": "sd_OMTSr9zbnpmZDAV5",
        "type": "Session",
        "z": "sd_fSBMkrTuRPC6wXHh",
        "viewType": "server",
        "nodeType": "flow",
        "name": "",
        "operationType": "update",
        "data": "",
        "resultMapping": "",
        "dataMapping": "bh.local.reqParams",
        "category": "HTTP",
        "__ssdTypeInputs__": {
            "resultMapping": {
                "type": "bh.input",
                "value": ""
            },
            "dataMapping": {
                "type": "bh.local",
                "value": "reqParams"
            }
        },
        "x": 763,
        "y": 410,
        "wires": [
            [
                "sd_TMcrm2JkFcix73FR"
            ]
        ],
        "generateNext": false,
        "generated": true,
        "serviceName": "ids"
    },
    {
        "id": "sd_AvRKiAB4exMsKSGB",
        "type": "Script",
        "z": "sd_fSBMkrTuRPC6wXHh",
        "viewType": "common",
        "nodeType": "flow",
        "name": "Calculate IDS login redirect URL",
        "script": "const authorizationRequest = Object.assign({\n    redirect_uri: url.resolve(bh.web.req.href, '/api/login/cb'),\n    scope: 'openid profile email address phone user',\n    state: bh.local.reqParams.state,\n    nonce: bh.local.reqParams.nonce,\n    response_type: bh.input.client.response_types[0],\n}, bh.input.authParams);\n\nbh.local.redirectHeaders = {\n    location: bh.input.client.authorizationUrl(authorizationRequest)\n};\n",
        "x": 1194,
        "y": 160,
        "wires": [
            [
                "sd_aPrUyLyAvrShAa6K"
            ]
        ],
        "generateNext": false,
        "generated": true,
        "serviceName": "ids"
    },
    {
        "id": "sd_TMcrm2JkFcix73FR",
        "type": "CallService",
        "z": "sd_fSBMkrTuRPC6wXHh",
        "viewType": "common",
        "nodeType": "flow",
        "name": "Get IDS client instance",
        "outputs": 1,
        "noerr": 0,
        "service": {
            "serviceId": "sd_NSqBzxi0p4rbp9Zi",
            "serviceName": "idsutil"
        },
        "flow": {
            "flowId": "sd_KtYzEMt917FCbTLd",
            "flowName": "getIDSClientInstance"
        },
        "inputVariables": [
            {
                "key": "clientInstance",
                "map": true,
                "valueType": "bh.input",
                "value": ""
            }
        ],
        "outputMapping": [
            {
                "mapVarType": "input",
                "key": "clientInstance",
                "valueType": "bh.input",
                "value": "client",
                "mapVarName": "clientInstance",
                "localVar": "bh.input.client"
            }
        ],
        "callService": "idsutil",
        "startName": "getIDSClientInstance",
        "inputParams": [
            null
        ],
        "x": 903.8125,
        "y": 173.984375,
        "wires": [
            [
                "sd_WxXhV1ARxi5XY11z"
            ]
        ],
        "generateNext": false,
        "generated": true,
        "serviceName": "ids"
    },
    {
        "id": "sd_aPrUyLyAvrShAa6K",
        "type": "HttpOut",
        "z": "sd_fSBMkrTuRPC6wXHh",
        "viewType": "server",
        "nodeType": "flow",
        "name": "Redirect to IDS",
        "headers": {
            "type": "bh.local",
            "value": "redirectHeaders",
            "ssd_typedInputField": true
        },
        "responseBody": {
            "type": "literal",
            "value": "'redirecting'",
            "ssd_typedInputField": true
        },
        "httpcode": "302",
        "responseType": "obj",
        "responseMapping": {
            "status": 302,
            "obj": "'redirecting'",
            "send": "'redirecting'"
        },
        "cookies": [],
        "inputs": 1,
        "outputs": 0,
        "editableListData": {
            "headers": []
        },
        "cookiesList": {},
        "switchStates": {
            "headers": "Value",
            "cookies": "Map"
        },
        "category": "HTTP",
        "x": 1343,
        "y": 408,
        "wires": [],
        "generateNext": false,
        "generated": true,
        "serviceName": "ids"
    },
    {
        "id": "sd_qr2ucQkHrka1mBaF",
        "type": "Switch",
        "z": "sd_fSBMkrTuRPC6wXHh",
        "viewType": "common",
        "nodeType": "flow",
        "name": "Check if client is registered",
        "property": "idsConfigured",
        "propertyType": "bh.local",
        "propertyGv": "bh.local.idsConfigured",
        "rules": [
            {
                "t": "true"
            },
            {
                "t": "else"
            }
        ],
        "checkall": "false",
        "repair": false,
        "outputs": 2,
        "x": 388,
        "y": 286,
        "wires": [
            [
                "sd_JxYMc38DpKTqVglR"
            ],
            [
                "sd_rgyGKpRryMBxt5Cr"
            ]
        ],
        "generateNext": false,
        "generated": true,
        "serviceName": "ids"
    },
    {
        "id": "sd_f0bsvFvwJuouFJXW",
        "type": "Script",
        "z": "sd_fSBMkrTuRPC6wXHh",
        "viewType": "common",
        "nodeType": "flow",
        "name": "Assert IDS config",
        "script": "bh.local.idsConfigured = false;\nif (settings.default.hasOwnProperty('ids') && settings.default['ids'].hasOwnProperty('client_id') &&\n    settings.default['ids'].hasOwnProperty('client_secret')) {\n    bh.local.idsConfigured = true;\n}",
        "x": 234,
        "y": 287,
        "wires": [
            [
                "sd_qr2ucQkHrka1mBaF"
            ]
        ],
        "generateNext": false,
        "generated": true,
        "serviceName": "ids"
    },
    {
        "id": "sd_PDLN1iG6KYDmbbjx",
        "type": "HttpOut",
        "z": "sd_fSBMkrTuRPC6wXHh",
        "viewType": "server",
        "nodeType": "flow",
        "name": "Send client not registered response",
        "headers": {},
        "responseBody": {
            "type": "literal",
            "value": "bh.local.res.message",
            "ssd_typedInputField": true
        },
        "httpcode": "404",
        "responseType": "obj",
        "responseMapping": {
            "status": 404,
            "obj": "bh.local.res.message",
            "send": "bh.local.res.message"
        },
        "cookies": [],
        "inputs": 1,
        "outputs": 0,
        "editableListData": {
            "headers": []
        },
        "cookiesList": {},
        "switchStates": {
            "headers": "Map",
            "cookies": "Map"
        },
        "category": "HTTP",
        "x": 1341,
        "y": 286,
        "wires": [],
        "generateNext": false,
        "generated": true
    },
    {
        "id": "sd_rgyGKpRryMBxt5Cr",
        "type": "Script",
        "z": "sd_fSBMkrTuRPC6wXHh",
        "viewType": "common",
        "nodeType": "flow",
        "name": "Client not registered object",
        "script": "bh.local.res = {\n    message: 'IDS client not registered. Register on the Neutrinos Stuido and try again'\n}",
        "x": 617,
        "y": 291,
        "wires": [
            [
                "sd_PDLN1iG6KYDmbbjx"
            ]
        ],
        "generateNext": false,
        "generated": true
    },
    {
        "id": "sd_zY5jXL9jbYAFPYDv",
        "type": "MiddlewareStart",
        "z": "sd_fSBMkrTuRPC6wXHh",
        "viewType": "server",
        "nodeType": "start",
        "name": "hrefstart",
        "inputs": 0,
        "outputs": 1,
        "category": "HTTP",
        "x": 517,
        "y": 691.796875,
        "wires": [
            [
                "sd_tQ3dGC96Ldo1losZ"
            ]
        ],
        "generateNext": true,
        "serviceName": "ids"
    },
    {
        "id": "sd_6wFIvxem3KW0MLNw",
        "type": "MiddlewareEnd",
        "z": "sd_fSBMkrTuRPC6wXHh",
        "viewType": "server",
        "nodeType": "flow",
        "name": "Href end",
        "headers": {},
        "responseBody": {
            "type": "literal",
            "value": "'end'",
            "ssd_typedInputField": true
        },
        "httpcode": "200",
        "responseType": "next",
        "responseMapping": {
            "status": 200,
            "next": "'end'"
        },
        "cookies": [],
        "inputs": 1,
        "outputs": 0,
        "editableListData": {
            "headers": []
        },
        "cookiesList": {},
        "switchStates": {
            "headers": "Map",
            "cookies": "Map"
        },
        "category": "HTTP",
        "x": 819.890625,
        "y": 692.796875,
        "wires": [],
        "generateNext": false,
        "generated": true
    },
    {
        "id": "sd_tQ3dGC96Ldo1losZ",
        "type": "Script",
        "z": "sd_fSBMkrTuRPC6wXHh",
        "viewType": "common",
        "nodeType": "flow",
        "name": "Calculate href",
        "script": "const protocol = bh.input.headers['x-forwarded-proto'] || bh.web.req.protocol;\nconst href = protocol + \"://\" + bh.web.req.get('Host') + bh.web.req.originalUrl;\nbh.web.req.href = href;",
        "x": 665,
        "y": 692.78125,
        "wires": [
            [
                "sd_6wFIvxem3KW0MLNw"
            ]
        ],
        "generateNext": false,
        "generated": true
    },
    {
        "id": "sd_WxXhV1ARxi5XY11z",
        "type": "CallService",
        "z": "sd_fSBMkrTuRPC6wXHh",
        "viewType": "common",
        "nodeType": "flow",
        "name": "Get Scope and consent values",
        "outputs": 1,
        "noerr": 0,
        "service": {
            "serviceId": "sd_NSqBzxi0p4rbp9Zi",
            "serviceName": "idsutil"
        },
        "flow": {
            "flowId": "sd_qKVsYo7Prhn4KluO",
            "flowName": "Get Authorization Params"
        },
        "inputVariables": [
            {
                "key": "authParams",
                "map": false,
                "value": ""
            }
        ],
        "outputMapping": [
            {
                "mapVarType": "input",
                "key": "authParams",
                "valueType": "bh.input",
                "value": "authParams",
                "mapVarName": "authParams",
                "localVar": "bh.input.authParams"
            }
        ],
        "callService": "idsutil",
        "startName": "getAuthorizationParams",
        "inputParams": [
            ""
        ],
        "x": 1051,
        "y": 415.78125,
        "wires": [
            [
                "sd_AvRKiAB4exMsKSGB"
            ]
        ],
        "generateNext": false,
        "generated": true
    },
    {
        "id": "sd_9Uh8mI90N4GVjNZX",
        "type": "HttpIn",
        "z": "sd_fSBMkrTuRPC6wXHh",
        "viewType": "server",
        "nodeType": "start",
        "name": "Login Callback API",
        "path": "/login/cb",
        "uploadpath": "",
        "summary": "",
        "description": "",
        "method": "get",
        "sequenceId": "",
        "consumes": "",
        "produces": "",
        "filetype": "path",
        "acceptFileUpload": false,
        "httpOptions": {
            "/login/cb": {
                "get": {
                    "summary": "",
                    "description": "",
                    "consumes": [],
                    "produces": [],
                    "parameters": [],
                    "responses": {}
                }
            }
        },
        "uploadFileOptions": {},
        "editableListData": {
            "responses": [],
            "params": [],
            "produces": [],
            "consumes": []
        },
        "inputs": 0,
        "outputs": 1,
        "category": "HTTP",
        "x": 88.890625,
        "y": 1038.796875,
        "wires": [
            [
                "sd_Jq7SEwjDHAqDCABn"
            ]
        ],
        "generateNext": true,
        "serviceName": "ids"
    },
    {
        "id": "sd_XfMonHE4Q0yxIJ5r",
        "type": "CallService",
        "z": "sd_fSBMkrTuRPC6wXHh",
        "viewType": "common",
        "nodeType": "flow",
        "name": "Get IDS client instance",
        "outputs": 1,
        "noerr": 0,
        "service": {
            "serviceId": "sd_NSqBzxi0p4rbp9Zi",
            "serviceName": "idsutil"
        },
        "flow": {
            "flowId": "sd_KtYzEMt917FCbTLd",
            "flowName": "getIDSClientInstance"
        },
        "inputVariables": [
            {
                "key": "clientInstance",
                "map": true,
                "valueType": "bh.input",
                "value": ""
            }
        ],
        "outputMapping": [
            {
                "mapVarType": "input",
                "key": "clientInstance",
                "valueType": "bh.input",
                "value": "client",
                "mapVarName": "clientInstance",
                "localVar": "bh.input.client"
            }
        ],
        "callService": "idsutil",
        "startName": "getIDSClientInstance",
        "inputParams": [
            null
        ],
        "x": 453,
        "y": 1036.8125,
        "wires": [
            [
                "sd_gPn8y5t8gezx0bcM"
            ]
        ],
        "generateNext": false,
        "generated": true
    },
    {
        "id": "sd_gPn8y5t8gezx0bcM",
        "type": "Script",
        "z": "sd_fSBMkrTuRPC6wXHh",
        "viewType": "common",
        "nodeType": "flow",
        "name": "Get userinfo and tokens ",
        "script": "const params = bh.input.client.callbackParams(bh.web.req);\nlet tokenset = await bh.input.client.callback(url.resolve(bh.web.req.href, 'cb'), params, {\n    'nonce': bh.input.sessionParams.data.nonce,\n    'state': bh.input.sessionParams.data.state\n});\n\nbh.local.redirectTo = bh.input.sessionParams.data.redirectTo\n\nbh.local.userDetails = {\n    tokenset: Object.assign({}, tokenset),\n    userInfo: await bh.input.client.userinfo(tokenset['access_token'])\n}\nbh.local.userDetails['tokenset']['claims'] = Object.assign({}, tokenset.claims());",
        "x": 616,
        "y": 1036.78125,
        "wires": [
            [
                "sd_r0OVnu9O0pfz8GJJ"
            ]
        ],
        "generateNext": false,
        "generated": true
    },
    {
        "id": "sd_Jq7SEwjDHAqDCABn",
        "type": "Session",
        "z": "sd_fSBMkrTuRPC6wXHh",
        "viewType": "server",
        "nodeType": "flow",
        "name": "",
        "operationType": "get",
        "data": "",
        "resultMapping": "bh.input.sessionParams",
        "dataMapping": "",
        "category": "HTTP",
        "__ssdTypeInputs__": {
            "resultMapping": {
                "type": "bh.input",
                "value": "sessionParams"
            },
            "dataMapping": {
                "type": "bh.input",
                "value": ""
            }
        },
        "x": 262,
        "y": 1038.796875,
        "wires": [
            [
                "sd_XfMonHE4Q0yxIJ5r"
            ]
        ],
        "generateNext": false,
        "generated": true
    },
    {
        "id": "sd_0A4lJtBVp8uAHdl3",
        "type": "Switch",
        "z": "sd_fSBMkrTuRPC6wXHh",
        "viewType": "common",
        "nodeType": "flow",
        "name": "Send response based on device type",
        "property": "sessionParams.data.isMobile",
        "propertyType": "bh.input",
        "propertyGv": "bh.input.sessionParams.data.isMobile",
        "rules": [
            {
                "t": "se",
                "v": "true",
                "vt": "str",
                "gv": "\"true\""
            },
            {
                "t": "else"
            }
        ],
        "checkall": "false",
        "repair": false,
        "outputs": 2,
        "x": 1001,
        "y": 1035.78125,
        "wires": [
            [
                "sd_0JrZgPFq8kkCBfUb"
            ],
            [
                "sd_ePlKadhmaieCko9S"
            ]
        ],
        "generateNext": false,
        "generated": true
    },
    {
        "id": "sd_0JrZgPFq8kkCBfUb",
        "type": "Script",
        "z": "sd_fSBMkrTuRPC6wXHh",
        "viewType": "common",
        "nodeType": "flow",
        "name": "Mobile html response",
        "script": "bh.local.htmlResponse = `\n <html>\n   <script>\n      let _timer;\n      _timer = setInterval(() => {\n                  if(window.webkit) {\n                      window.webkit.messageHandlers.cordova_iab.postMessage(JSON.stringify({'auth': 'success'}));\n                      clearInterval(_timer);\n                  }\n              }, 250);\n      \n   </script>\n</html>`;",
        "x": 1229.390643119812,
        "y": 891.2812614440918,
        "wires": [
            [
                "sd_dwvHWGNKjPG9R9LZ"
            ]
        ],
        "generateNext": false,
        "generated": true
    },
    {
        "id": "sd_ePlKadhmaieCko9S",
        "type": "Script",
        "z": "sd_fSBMkrTuRPC6wXHh",
        "viewType": "common",
        "nodeType": "flow",
        "name": "Add location in headers obj",
        "script": "bh.local.redirectHeaders = {\n    location: bh.local.redirectTo\n}",
        "x": 1218.890640258789,
        "y": 1152.5312690734863,
        "wires": [
            [
                "sd_UcMFS6skseMRcoP0"
            ]
        ],
        "generateNext": false,
        "generated": true
    },
    {
        "id": "sd_dwvHWGNKjPG9R9LZ",
        "type": "HttpOut",
        "z": "sd_fSBMkrTuRPC6wXHh",
        "viewType": "server",
        "nodeType": "flow",
        "name": "Html response to close in app browser",
        "headers": {},
        "responseBody": {
            "type": "bh.local",
            "value": "htmlResponse",
            "ssd_typedInputField": true
        },
        "httpcode": "200",
        "responseType": "txt",
        "responseMapping": {
            "status": 200,
            "txt": "bh.local.htmlResponse",
            "send": "bh.local.htmlResponse"
        },
        "cookies": [],
        "inputs": 1,
        "outputs": 0,
        "editableListData": {
            "headers": []
        },
        "cookiesList": {},
        "switchStates": {
            "headers": "Map",
            "cookies": "Map"
        },
        "category": "HTTP",
        "x": 1488.500020980835,
        "y": 1141.781265258789,
        "wires": [],
        "generateNext": false,
        "generated": true
    },
    {
        "id": "sd_UcMFS6skseMRcoP0",
        "type": "HttpOut",
        "z": "sd_fSBMkrTuRPC6wXHh",
        "viewType": "server",
        "nodeType": "flow",
        "name": "Redirect back to app",
        "headers": {
            "type": "bh.local",
            "value": "redirectHeaders",
            "ssd_typedInputField": true
        },
        "responseBody": {
            "type": "literal",
            "value": "'Redirecting'",
            "ssd_typedInputField": true
        },
        "httpcode": "302",
        "responseType": "txt",
        "responseMapping": {
            "status": 302,
            "txt": "'Redirecting'",
            "send": "'Redirecting'"
        },
        "cookies": [],
        "inputs": 1,
        "outputs": 0,
        "editableListData": {
            "headers": []
        },
        "cookiesList": {},
        "switchStates": {
            "headers": "Value",
            "cookies": "Map"
        },
        "category": "HTTP",
        "x": 1483.000020980835,
        "y": 903.2812633514404,
        "wires": [],
        "generateNext": false,
        "generated": true
    },
    {
        "id": "sd_r0OVnu9O0pfz8GJJ",
        "type": "Session",
        "z": "sd_fSBMkrTuRPC6wXHh",
        "viewType": "server",
        "nodeType": "flow",
        "name": "",
        "operationType": "update",
        "data": "",
        "resultMapping": "",
        "dataMapping": "bh.local.userDetails",
        "category": "HTTP",
        "__ssdTypeInputs__": {
            "resultMapping": {
                "type": "bh.input",
                "value": ""
            },
            "dataMapping": {
                "type": "bh.local",
                "value": "userDetails"
            }
        },
        "x": 792,
        "y": 1036.78125,
        "wires": [
            [
                "sd_0A4lJtBVp8uAHdl3"
            ]
        ],
        "generateNext": false,
        "generated": true
    },
    {
        "id": "sd_DRgjysCaFfPwBlXi",
        "type": "HttpIn",
        "z": "sd_fSBMkrTuRPC6wXHh",
        "viewType": "server",
        "nodeType": "start",
        "name": "Get userinfo",
        "path": "/user/info",
        "uploadpath": "",
        "summary": "",
        "description": "",
        "method": "get",
        "sequenceId": "IDSAuthroizedAPIs",
        "consumes": "",
        "produces": "",
        "filetype": "path",
        "acceptFileUpload": false,
        "httpOptions": {
            "/user/info": {
                "get": {
                    "summary": "",
                    "description": "",
                    "consumes": [],
                    "produces": [],
                    "parameters": [],
                    "responses": {}
                }
            }
        },
        "uploadFileOptions": {},
        "editableListData": {
            "responses": [],
            "params": [],
            "produces": [],
            "consumes": []
        },
        "inputs": 0,
        "outputs": 1,
        "category": "HTTP",
        "x": 455.8125057220459,
        "y": 2060.734405517578,
        "wires": [
            [
                "sd_VnANuW91nLxlHEXZ"
            ]
        ],
        "generateNext": true,
        "serviceName": "ids"
    },
    {
        "id": "sd_VnANuW91nLxlHEXZ",
        "type": "Session",
        "z": "sd_fSBMkrTuRPC6wXHh",
        "viewType": "server",
        "nodeType": "flow",
        "name": "",
        "operationType": "get",
        "data": "",
        "resultMapping": "bh.local.session",
        "dataMapping": "",
        "category": "HTTP",
        "__ssdTypeInputs__": {
            "resultMapping": {
                "type": "bh.local",
                "value": "session"
            },
            "dataMapping": {
                "type": "bh.input",
                "value": ""
            }
        },
        "x": 653.0000057220459,
        "y": 2060.781280517578,
        "wires": [
            [
                "sd_7RvxvdItCz0JW7yp"
            ]
        ],
        "generateNext": false,
        "generated": true
    },
    {
        "id": "sd_7RvxvdItCz0JW7yp",
        "type": "HttpOut",
        "z": "sd_fSBMkrTuRPC6wXHh",
        "viewType": "server",
        "nodeType": "flow",
        "name": "",
        "headers": {},
        "responseBody": {
            "type": "bh.local",
            "value": "session.data.userInfo",
            "ssd_typedInputField": true
        },
        "httpcode": "200",
        "responseType": "obj",
        "responseMapping": {
            "status": 200,
            "obj": "bh.local.session.data.userInfo",
            "send": "bh.local.session.data.userInfo"
        },
        "cookies": [],
        "inputs": 1,
        "outputs": 0,
        "editableListData": {
            "headers": []
        },
        "cookiesList": {},
        "switchStates": {
            "headers": "Map",
            "cookies": "Map"
        },
        "category": "HTTP",
        "x": 819.0000057220459,
        "y": 2060.781280517578,
        "wires": [],
        "generateNext": false,
        "generated": true
    },
    {
        "id": "sd_sR2jZyQWUTi6S3WD",
        "type": "Catch",
        "z": "sd_fSBMkrTuRPC6wXHh",
        "viewType": "common",
        "nodeType": "start",
        "name": "",
        "selectedNodes": [
            "sd_WxXhV1ARxi5XY11z",
            "sd_9Uh8mI90N4GVjNZX",
            "sd_XfMonHE4Q0yxIJ5r",
            "sd_gPn8y5t8gezx0bcM",
            "sd_Jq7SEwjDHAqDCABn",
            "sd_0A4lJtBVp8uAHdl3",
            "sd_0JrZgPFq8kkCBfUb",
            "sd_ePlKadhmaieCko9S",
            "sd_dwvHWGNKjPG9R9LZ",
            "sd_UcMFS6skseMRcoP0"
        ],
        "selectCatchType": "selectednodes",
        "masternodeList": "",
        "x": 98.89062976837158,
        "y": 1233.0000343322754,
        "wires": [
            [
                "sd_NIwJNT1baHgr1cRK"
            ]
        ],
        "generateNext": true,
        "serviceName": "ids"
    },
    {
        "id": "sd_NIwJNT1baHgr1cRK",
        "type": "Script",
        "z": "sd_fSBMkrTuRPC6wXHh",
        "viewType": "common",
        "nodeType": "flow",
        "name": "Redirect back to login",
        "script": "bh.web.res.redirect('/api/login')",
        "x": 262.50000381469727,
        "y": 1231.0312690734863,
        "wires": [
            []
        ],
        "generateNext": false,
        "generated": true
    },
    {
        "id": "sd_30JipwBmsAyANPGy",
        "type": "HttpIn",
        "z": "sd_fSBMkrTuRPC6wXHh",
        "viewType": "server",
        "nodeType": "start",
        "name": "Logout API",
        "path": "/logout",
        "uploadpath": "",
        "summary": "",
        "description": "",
        "method": "get",
        "sequenceId": "",
        "consumes": "",
        "produces": "",
        "filetype": "path",
        "acceptFileUpload": false,
        "httpOptions": {
            "/logout": {
                "get": {
                    "summary": "",
                    "description": "",
                    "consumes": [],
                    "produces": [],
                    "parameters": [],
                    "responses": {}
                }
            }
        },
        "uploadFileOptions": {},
        "editableListData": {
            "responses": [],
            "params": [],
            "produces": [],
            "consumes": []
        },
        "inputs": 0,
        "outputs": 1,
        "category": "HTTP",
        "x": 79.890625,
        "y": 1679.796875,
        "wires": [
            [
                "sd_eSOPbKOkYJ9DG2cW"
            ]
        ],
        "generateNext": true,
        "serviceName": "ids"
    },
    {
        "id": "sd_eSOPbKOkYJ9DG2cW",
        "type": "Session",
        "z": "sd_fSBMkrTuRPC6wXHh",
        "viewType": "server",
        "nodeType": "flow",
        "name": "",
        "operationType": "get",
        "data": "",
        "resultMapping": "bh.local.sessionData",
        "dataMapping": "",
        "category": "HTTP",
        "__ssdTypeInputs__": {
            "resultMapping": {
                "type": "bh.local",
                "value": "sessionData"
            },
            "dataMapping": {
                "type": "bh.input",
                "value": ""
            }
        },
        "x": 249,
        "y": 1679.78125,
        "wires": [
            [
                "sd_Hn7EX5tpivGeeO0a"
            ]
        ],
        "generateNext": false,
        "generated": true
    },
    {
        "id": "sd_Hn7EX5tpivGeeO0a",
        "type": "Script",
        "z": "sd_fSBMkrTuRPC6wXHh",
        "viewType": "common",
        "nodeType": "flow",
        "name": "",
        "script": "\nbh.local.sessionExists = false;\nif (bh.local.sessionData && bh.local.sessionData.data && bh.local.sessionData.data.tokenset) {\n    bh.local.sessionData['data']['redirectTo'] = bh.input.query['redirectTo'];\n    bh.local.sessionData['data']['isMobile'] = bh.input.query['isMobile'];\n    bh.local.sessionExists = true;\n} else {\n    delete bh.local.sessionData['redirectTo'];\n}",
        "x": 413,
        "y": 1678.78125,
        "wires": [
            [
                "sd_a5r9o9cJLyJpeUyG"
            ]
        ],
        "generateNext": false,
        "generated": true
    },
    {
        "id": "sd_OfViSKoyHkrQ8Xg6",
        "type": "Switch",
        "z": "sd_fSBMkrTuRPC6wXHh",
        "viewType": "common",
        "nodeType": "flow",
        "name": "Session exists ",
        "property": "sessionExists",
        "propertyType": "bh.local",
        "propertyGv": "bh.local.sessionExists",
        "rules": [
            {
                "t": "true"
            },
            {
                "t": "else"
            }
        ],
        "checkall": "true",
        "repair": false,
        "outputs": 2,
        "x": 949,
        "y": 1676.78125,
        "wires": [
            [
                "sd_Pz2WNQdjB4YzgeRd"
            ],
            [
                "sd_l4qFGOaJ0kjIXICC"
            ]
        ],
        "generateNext": false,
        "generated": true
    },
    {
        "id": "sd_Pz2WNQdjB4YzgeRd",
        "type": "Script",
        "z": "sd_fSBMkrTuRPC6wXHh",
        "viewType": "common",
        "nodeType": "flow",
        "name": "",
        "script": "await Promise.all([\n    bh.local.sessionData.data.tokenset.access_token ? bh.input.client.revoke(bh.local.sessionData.data.tokenset.access_token, 'access_token') : undefined,\n    bh.local.sessionData.data.tokenset.refresh_token ? bh.input.client.revoke(bh.local.sessionData.data.tokenset.refresh_token, 'refresh_token') : undefined,\n]);\n\nbh.local.res = {\n        'idsURL': url.format(Object.assign(url.parse(bh.input.client.issuer.end_session_endpoint), {\n            search: null,\n            query: {\n                id_token_hint: bh.local.sessionData.data.tokenset.id_token,\n                post_logout_redirect_uri: url.resolve(bh.web.req.href, '/api/logout/cb'),\n                client_id: settings.default['ids']['client_id']\n            },\n        })),\n        'sessionExists': true,\n}",
        "x": 1119.750015258789,
        "y": 1570.5312728881836,
        "wires": [
            [
                "sd_N0hBDMdxemPnV3no"
            ]
        ],
        "generateNext": false,
        "generated": true
    },
    {
        "id": "sd_6EH4zDdkDu3qFoXS",
        "type": "CallService",
        "z": "sd_fSBMkrTuRPC6wXHh",
        "viewType": "common",
        "nodeType": "flow",
        "name": "Get IDS client instance",
        "outputs": 1,
        "noerr": 0,
        "service": {
            "serviceId": "sd_NSqBzxi0p4rbp9Zi",
            "serviceName": "idsutil"
        },
        "flow": {
            "flowId": "sd_KtYzEMt917FCbTLd",
            "flowName": "getIDSClientInstance"
        },
        "inputVariables": [
            {
                "key": "clientInstance",
                "map": true,
                "valueType": "bh.input",
                "value": ""
            }
        ],
        "outputMapping": [
            {
                "mapVarType": "input",
                "key": "clientInstance",
                "valueType": "bh.input",
                "value": "client",
                "mapVarName": "clientInstance",
                "localVar": "bh.input.client"
            }
        ],
        "callService": "idsutil",
        "startName": "getIDSClientInstance",
        "inputParams": [
            null
        ],
        "x": 771.53125,
        "y": 1678.8125,
        "wires": [
            [
                "sd_OfViSKoyHkrQ8Xg6"
            ]
        ],
        "generateNext": false,
        "generated": true
    },
    {
        "id": "sd_N0hBDMdxemPnV3no",
        "type": "HttpOut",
        "z": "sd_fSBMkrTuRPC6wXHh",
        "viewType": "server",
        "nodeType": "flow",
        "name": "Send IDS logout Url",
        "headers": {},
        "responseBody": {
            "type": "bh.local",
            "value": "res",
            "ssd_typedInputField": true
        },
        "httpcode": "200",
        "responseType": "obj",
        "responseMapping": {
            "status": 200,
            "obj": "bh.local.res",
            "send": "bh.local.res"
        },
        "cookies": [],
        "inputs": 1,
        "outputs": 0,
        "editableListData": {
            "headers": []
        },
        "cookiesList": {},
        "switchStates": {
            "headers": "Map",
            "cookies": "Map"
        },
        "category": "HTTP",
        "x": 1334.2500200271606,
        "y": 1688.7812728881836,
        "wires": [],
        "generateNext": false,
        "generated": true
    },
    {
        "id": "sd_l4qFGOaJ0kjIXICC",
        "type": "Script",
        "z": "sd_fSBMkrTuRPC6wXHh",
        "viewType": "common",
        "nodeType": "flow",
        "name": "",
        "script": "bh.local.res = {\n        'sessionExists': false,\n}",
        "x": 1113.250015258789,
        "y": 1790.5312767028809,
        "wires": [
            [
                "sd_N0hBDMdxemPnV3no"
            ]
        ],
        "generateNext": false,
        "generated": true
    },
    {
        "id": "sd_a5r9o9cJLyJpeUyG",
        "type": "Session",
        "z": "sd_fSBMkrTuRPC6wXHh",
        "viewType": "server",
        "nodeType": "flow",
        "name": "",
        "operationType": "update",
        "data": "",
        "resultMapping": "bh.local.session",
        "dataMapping": "bh.local.sessionData.data",
        "category": "HTTP",
        "__ssdTypeInputs__": {
            "resultMapping": {
                "type": "bh.local",
                "value": "session"
            },
            "dataMapping": {
                "type": "bh.local",
                "value": "sessionData.data"
            }
        },
        "x": 573,
        "y": 1677.78125,
        "wires": [
            [
                "sd_6EH4zDdkDu3qFoXS"
            ]
        ],
        "generateNext": false,
        "generated": true
    },
    {
        "id": "sd_ApX0usg33p84sBNd",
        "type": "HttpIn",
        "z": "sd_fSBMkrTuRPC6wXHh",
        "viewType": "server",
        "nodeType": "start",
        "name": "Logout Callback API",
        "path": "/logout/cb",
        "uploadpath": "",
        "summary": "",
        "description": "",
        "method": "get",
        "sequenceId": "",
        "consumes": "",
        "produces": "",
        "filetype": "path",
        "acceptFileUpload": false,
        "httpOptions": {
            "/logout/cb": {
                "get": {
                    "summary": "",
                    "description": "",
                    "consumes": [],
                    "produces": [],
                    "parameters": [],
                    "responses": {}
                }
            }
        },
        "uploadFileOptions": {},
        "editableListData": {
            "responses": [],
            "params": [],
            "produces": [],
            "consumes": []
        },
        "inputs": 0,
        "outputs": 1,
        "category": "HTTP",
        "x": 163.1406421661377,
        "y": 2441.0469074249268,
        "wires": [
            [
                "sd_mjwyq4MFg7vvnmWF"
            ]
        ],
        "generateNext": true,
        "serviceName": "ids"
    },
    {
        "id": "sd_mjwyq4MFg7vvnmWF",
        "type": "Session",
        "z": "sd_fSBMkrTuRPC6wXHh",
        "viewType": "server",
        "nodeType": "flow",
        "name": "",
        "operationType": "get",
        "data": "",
        "resultMapping": "bh.local.sessionData",
        "dataMapping": "",
        "category": "HTTP",
        "__ssdTypeInputs__": {
            "resultMapping": {
                "type": "bh.local",
                "value": "sessionData"
            },
            "dataMapping": {
                "type": "bh.input",
                "value": ""
            }
        },
        "x": 347.2500171661377,
        "y": 2442.0312824249268,
        "wires": [
            [
                "sd_Jl8hjukN3xTazsMs"
            ]
        ],
        "generateNext": false,
        "generated": true
    },
    {
        "id": "sd_Kmska1zhRX5Mtbsd",
        "type": "Switch",
        "z": "sd_fSBMkrTuRPC6wXHh",
        "viewType": "common",
        "nodeType": "flow",
        "name": "Check platform type",
        "property": "sessionData.data.isMobile",
        "propertyType": "bh.local",
        "propertyGv": "bh.local.sessionData.data.isMobile",
        "rules": [
            {
                "t": "se",
                "v": "true",
                "vt": "str",
                "gv": "\"true\""
            },
            {
                "t": "else"
            }
        ],
        "checkall": "false",
        "repair": false,
        "outputs": 2,
        "x": 665.2500171661377,
        "y": 2442.0312824249268,
        "wires": [
            [
                "sd_HyJ4OWdwVMyKKtrm"
            ],
            [
                "sd_Je7Us8vx3x6fsbNv"
            ]
        ],
        "generateNext": false,
        "generated": true
    },
    {
        "id": "sd_HyJ4OWdwVMyKKtrm",
        "type": "Script",
        "z": "sd_fSBMkrTuRPC6wXHh",
        "viewType": "common",
        "nodeType": "flow",
        "name": "",
        "script": "bh.local.res = \n`<html>\n   <script>\n      var _timer;\n      _timer = setInterval(() => {\n                  if(window.webkit) {\n                      window.webkit.messageHandlers.cordova_iab.postMessage(JSON.stringify({'auth': 'success'}));\n                      clearInterval(_timer);\n                  }\n              }, 250);\n      \n   </script>\n</html>`;",
        "x": 850.2500171661377,
        "y": 2516.0312824249268,
        "wires": [
            [
                "sd_WjCw6NbEoDbSplAc"
            ]
        ],
        "generateNext": false,
        "generated": true
    },
    {
        "id": "sd_WjCw6NbEoDbSplAc",
        "type": "HttpOut",
        "z": "sd_fSBMkrTuRPC6wXHh",
        "viewType": "server",
        "nodeType": "flow",
        "name": "Send html response",
        "headers": {},
        "responseBody": {
            "type": "bh.local",
            "value": "res",
            "ssd_typedInputField": true
        },
        "httpcode": "200",
        "responseType": "obj",
        "responseMapping": {
            "status": 200,
            "obj": "bh.local.res",
            "send": "bh.local.res"
        },
        "cookies": [],
        "inputs": 1,
        "outputs": 0,
        "editableListData": {
            "headers": []
        },
        "cookiesList": {},
        "switchStates": {
            "headers": "Map",
            "cookies": "Map"
        },
        "category": "HTTP",
        "x": 1083.2500171661377,
        "y": 2315.0312824249268,
        "wires": [],
        "generateNext": false,
        "generated": true
    },
    {
        "id": "sd_Je7Us8vx3x6fsbNv",
        "type": "Script",
        "z": "sd_fSBMkrTuRPC6wXHh",
        "viewType": "common",
        "nodeType": "flow",
        "name": "",
        "script": "bh.local.redirectHeaders = {\n    location: bh.local.sessionData.data.redirectTo\n}",
        "x": 849.2500171661377,
        "y": 2337.0312824249268,
        "wires": [
            [
                "sd_QAgdlJcfAu9wq2eh"
            ]
        ],
        "generateNext": false,
        "generated": true
    },
    {
        "id": "sd_QAgdlJcfAu9wq2eh",
        "type": "HttpOut",
        "z": "sd_fSBMkrTuRPC6wXHh",
        "viewType": "server",
        "nodeType": "flow",
        "name": "Redirect back to app",
        "headers": {
            "type": "bh.local",
            "value": "redirectHeaders",
            "ssd_typedInputField": true
        },
        "responseBody": {
            "type": "literal",
            "value": "'redirecting'",
            "ssd_typedInputField": true
        },
        "httpcode": "302",
        "responseType": "txt",
        "responseMapping": {
            "status": 302,
            "txt": "'redirecting'",
            "send": "'redirecting'"
        },
        "cookies": [],
        "inputs": 1,
        "outputs": 0,
        "editableListData": {
            "headers": []
        },
        "cookiesList": {},
        "switchStates": {
            "headers": "Value",
            "cookies": "Map"
        },
        "category": "HTTP",
        "x": 1089.2500171661377,
        "y": 2516.0312824249268,
        "wires": [],
        "generateNext": false,
        "generated": true
    },
    {
        "id": "sd_Jl8hjukN3xTazsMs",
        "type": "Session",
        "z": "sd_fSBMkrTuRPC6wXHh",
        "viewType": "server",
        "nodeType": "flow",
        "name": "",
        "operationType": "destroy",
        "data": "",
        "resultMapping": "",
        "dataMapping": "",
        "category": "HTTP",
        "__ssdTypeInputs__": {
            "resultMapping": {
                "type": "bh.input",
                "value": ""
            },
            "dataMapping": {
                "type": "bh.input",
                "value": ""
            }
        },
        "x": 519.2500171661377,
        "y": 2442.0312824249268,
        "wires": [
            [
                "sd_Kmska1zhRX5Mtbsd"
            ]
        ],
        "generateNext": false,
        "generated": true
    },
    {
        "id": "sd_695Kp5GlpT7OQ4sm",
        "type": "MiddlewareStart",
        "z": "sd_fSBMkrTuRPC6wXHh",
        "viewType": "server",
        "nodeType": "start",
        "name": "Authorize",
        "inputs": 0,
        "outputs": 1,
        "category": "HTTP",
        "x": 80.8125,
        "y": 3182.71875,
        "wires": [
            [
                "sd_2F8pU6Po9KxtZ84s"
            ]
        ],
        "generateNext": true,
        "serviceName": "ids"
    },
    {
        "id": "sd_2ItVNCN90o08i1Fs",
        "type": "Session",
        "z": "sd_fSBMkrTuRPC6wXHh",
        "viewType": "server",
        "nodeType": "flow",
        "name": "",
        "operationType": "get",
        "data": "",
        "resultMapping": "bh.local.sessionData",
        "dataMapping": "",
        "category": "HTTP",
        "__ssdTypeInputs__": {
            "resultMapping": {
                "type": "bh.local",
                "value": "sessionData"
            },
            "dataMapping": {
                "type": "bh.input",
                "value": ""
            }
        },
        "x": 386,
        "y": 3178.78125,
        "wires": [
            [
                "sd_kHFQi1Mcht1pVMkl"
            ]
        ],
        "generateNext": false,
        "generated": true
    },
    {
        "id": "sd_zGywluedIV5Fgbii",
        "type": "Switch",
        "z": "sd_fSBMkrTuRPC6wXHh",
        "viewType": "common",
        "nodeType": "flow",
        "name": "Check if session exists",
        "property": "sessionExists",
        "propertyType": "bh.local",
        "propertyGv": "bh.local.sessionExists",
        "rules": [
            {
                "t": "true"
            },
            {
                "t": "else"
            }
        ],
        "checkall": "true",
        "repair": false,
        "outputs": 2,
        "x": 679,
        "y": 3173.78125,
        "wires": [
            [
                "sd_uvjzXNbJy9FchJVu"
            ],
            [
                "sd_KzEtcpgUOJCFTKnp"
            ]
        ],
        "generateNext": false,
        "generated": true
    },
    {
        "id": "sd_KzEtcpgUOJCFTKnp",
        "type": "Switch",
        "z": "sd_fSBMkrTuRPC6wXHh",
        "viewType": "common",
        "nodeType": "flow",
        "name": "Check if it is the user info API.",
        "property": "path",
        "propertyType": "bh.input",
        "propertyGv": "bh.input.path",
        "rules": [
            {
                "t": "cont",
                "v": "/user/info",
                "vt": "str",
                "gv": "\"/user/info\""
            },
            {
                "t": "else"
            }
        ],
        "checkall": "false",
        "repair": false,
        "outputs": 2,
        "x": 641,
        "y": 3388.78125,
        "wires": [
            [
                "sd_pv3Z3pN7PVTnGTnq"
            ],
            [
                "sd_EnkHtgAMXr2ICfAo"
            ]
        ],
        "generateNext": false,
        "generated": true
    },
    {
        "id": "sd_WjJA2nX2IDkLbepb",
        "type": "HttpOut",
        "z": "sd_fSBMkrTuRPC6wXHh",
        "viewType": "server",
        "nodeType": "flow",
        "name": "Send the session not present response",
        "headers": {},
        "responseBody": {
            "type": "bh.local",
            "value": "res",
            "ssd_typedInputField": true
        },
        "httpcode": "403",
        "responseType": "obj",
        "responseMapping": {
            "status": 403,
            "obj": "bh.local.res",
            "send": "bh.local.res"
        },
        "cookies": [],
        "inputs": 1,
        "outputs": 0,
        "editableListData": {
            "headers": []
        },
        "cookiesList": {},
        "switchStates": {
            "headers": "Map",
            "cookies": "Map"
        },
        "category": "HTTP",
        "x": 1205,
        "y": 3366.78125,
        "wires": [],
        "generateNext": false,
        "generated": true
    },
    {
        "id": "sd_pv3Z3pN7PVTnGTnq",
        "type": "Script",
        "z": "sd_fSBMkrTuRPC6wXHh",
        "viewType": "common",
        "nodeType": "flow",
        "name": "",
        "script": "bh.local.res = { message: 'Session expired' };",
        "x": 892.890625,
        "y": 3386.78125,
        "wires": [
            [
                "sd_WjJA2nX2IDkLbepb"
            ]
        ],
        "generateNext": false,
        "generated": true
    },
    {
        "id": "sd_EnkHtgAMXr2ICfAo",
        "type": "Script",
        "z": "sd_fSBMkrTuRPC6wXHh",
        "viewType": "common",
        "nodeType": "flow",
        "name": "",
        "script": "bh.local.res = { code: 'NO_SESSION', message: 'Session not present' };",
        "x": 885,
        "y": 3522.8125,
        "wires": [
            [
                "sd_WjJA2nX2IDkLbepb"
            ]
        ],
        "generateNext": false,
        "generated": true
    },
    {
        "id": "sd_eESdmP80DLY7ImEW",
        "type": "Switch",
        "z": "sd_fSBMkrTuRPC6wXHh",
        "viewType": "common",
        "nodeType": "flow",
        "name": "Token exists after refresh",
        "property": "newSession",
        "propertyType": "bh.local",
        "propertyGv": "bh.local.newSession",
        "rules": [
            {
                "t": "false"
            },
            {
                "t": "else"
            }
        ],
        "checkall": "false",
        "repair": false,
        "outputs": 2,
        "x": 846,
        "y": 2953.78125,
        "wires": [
            [
                "sd_4rLQGWnqawNBv9u5"
            ],
            [
                "sd_prOtwNEqzXUUyss3"
            ]
        ],
        "generateNext": false,
        "generated": true
    },
    {
        "id": "sd_g9y298tsj6WhTi6S",
        "type": "MiddlewareEnd",
        "z": "sd_fSBMkrTuRPC6wXHh",
        "viewType": "server",
        "nodeType": "flow",
        "name": "Authorize end",
        "headers": {},
        "responseBody": {
            "type": "literal",
            "value": "'end'",
            "ssd_typedInputField": true
        },
        "httpcode": "200",
        "responseType": "next",
        "responseMapping": {
            "status": 200,
            "next": "'end'"
        },
        "cookies": [],
        "inputs": 1,
        "outputs": 0,
        "editableListData": {
            "headers": []
        },
        "cookiesList": {},
        "switchStates": {
            "headers": "Map",
            "cookies": "Map"
        },
        "category": "HTTP",
        "x": 1484,
        "y": 2956.703125,
        "wires": [],
        "generateNext": false,
        "generated": true
    },
    {
        "id": "sd_RCMM2yUNbSkBk2c2",
        "type": "Script",
        "z": "sd_fSBMkrTuRPC6wXHh",
        "viewType": "common",
        "nodeType": "flow",
        "name": "",
        "script": "bh.local.res = { code: 'TOKEN_EXPIRED', message: 'Token invalid or access revoked' };",
        "x": 884,
        "y": 3259.78125,
        "wires": [
            [
                "sd_WjJA2nX2IDkLbepb"
            ]
        ],
        "generateNext": false,
        "generated": true
    },
    {
        "id": "sd_uvjzXNbJy9FchJVu",
        "type": "CallService",
        "z": "sd_fSBMkrTuRPC6wXHh",
        "viewType": "common",
        "nodeType": "flow",
        "name": "Call handleTokenExpiry",
        "outputs": 1,
        "noerr": 0,
        "service": {
            "serviceId": "sd_NSqBzxi0p4rbp9Zi",
            "serviceName": "idsutil"
        },
        "flow": {
            "flowId": "sd_WuiShA4dV6QeVvoI",
            "flowName": "handleTokenExpiry"
        },
        "inputVariables": [
            {
                "key": "existingSession",
                "map": true,
                "valueType": "bh.local",
                "value": "sessionData"
            },
            {
                "key": "newSession",
                "map": true,
                "valueType": "bh.input",
                "value": ""
            }
        ],
        "outputMapping": [
            {
                "mapVarType": "input",
                "key": "newSession",
                "valueType": "bh.local",
                "value": "newSession",
                "mapVarName": "newSession",
                "localVar": "bh.local.newSession"
            }
        ],
        "callService": "idsutil",
        "startName": "handleTokenExpiry",
        "inputParams": [
            "bh.local.sessionData",
            null
        ],
        "x": 631,
        "y": 2951.78125,
        "wires": [
            [
                "sd_eESdmP80DLY7ImEW"
            ]
        ],
        "generateNext": false,
        "generated": true
    },
    {
        "id": "sd_2F8pU6Po9KxtZ84s",
        "type": "Script",
        "z": "sd_fSBMkrTuRPC6wXHh",
        "viewType": "common",
        "nodeType": "flow",
        "name": "",
        "script": "bh.local = {\n    \n}",
        "x": 227.890625,
        "y": 3180.78125,
        "wires": [
            [
                "sd_2ItVNCN90o08i1Fs"
            ]
        ],
        "generateNext": false,
        "generated": true
    },
    {
        "id": "sd_kHFQi1Mcht1pVMkl",
        "type": "Script",
        "z": "sd_fSBMkrTuRPC6wXHh",
        "viewType": "common",
        "nodeType": "flow",
        "name": "",
        "script": "bh.local.sessionExists = false;\n\nif (bh.local.sessionData && bh.local.sessionData.data && bh.local.sessionData.data.tokenset &&\n    bh.local.sessionData.data.tokenset.access_token && bh.local.sessionData.data.tokenset.refresh_token) {\n    bh.local.sessionExists = true;\n}",
        "x": 550,
        "y": 3178.78125,
        "wires": [
            [
                "sd_zGywluedIV5Fgbii"
            ]
        ],
        "generateNext": false,
        "generated": true
    },
    {
        "id": "sd_4rLQGWnqawNBv9u5",
        "type": "Session",
        "z": "sd_fSBMkrTuRPC6wXHh",
        "viewType": "server",
        "nodeType": "flow",
        "name": "",
        "operationType": "destroy",
        "data": "",
        "resultMapping": "",
        "dataMapping": "",
        "category": "HTTP",
        "__ssdTypeInputs__": {
            "resultMapping": {
                "type": "bh.input",
                "value": ""
            },
            "dataMapping": {
                "type": "bh.input",
                "value": ""
            }
        },
        "x": 887,
        "y": 3093.78125,
        "wires": [
            [
                "sd_RCMM2yUNbSkBk2c2"
            ]
        ],
        "generateNext": false,
        "generated": true
    },
    {
        "id": "sd_prOtwNEqzXUUyss3",
        "type": "Switch",
        "z": "sd_fSBMkrTuRPC6wXHh",
        "viewType": "common",
        "nodeType": "flow",
        "name": "Update session if token rotated",
        "property": "newSession.rotated",
        "propertyType": "bh.local",
        "propertyGv": "bh.local.newSession.rotated",
        "rules": [
            {
                "t": "true"
            },
            {
                "t": "else"
            }
        ],
        "checkall": "false",
        "repair": false,
        "outputs": 2,
        "x": 1051,
        "y": 2956.78125,
        "wires": [
            [
                "sd_rLvymsxs1MvSyKFK"
            ],
            [
                "sd_g9y298tsj6WhTi6S"
            ]
        ],
        "generateNext": false,
        "generated": true
    },
    {
        "id": "sd_XNIYhftiigmxAvaH",
        "type": "Session",
        "z": "sd_fSBMkrTuRPC6wXHh",
        "viewType": "server",
        "nodeType": "flow",
        "name": "",
        "operationType": "update",
        "data": "",
        "resultMapping": "bh.local.newSession",
        "dataMapping": "bh.local.newSession",
        "category": "HTTP",
        "__ssdTypeInputs__": {
            "resultMapping": {
                "type": "bh.local",
                "value": "newSession"
            },
            "dataMapping": {
                "type": "bh.local",
                "value": "newSession"
            }
        },
        "x": 1331,
        "y": 2827.78125,
        "wires": [
            [
                "sd_g9y298tsj6WhTi6S"
            ]
        ],
        "generateNext": false,
        "generated": true
    },
    {
        "id": "sd_rLvymsxs1MvSyKFK",
        "type": "Script",
        "z": "sd_fSBMkrTuRPC6wXHh",
        "viewType": "common",
        "nodeType": "flow",
        "name": "",
        "script": "delete bh.local.newSession.rotated;",
        "x": 1192,
        "y": 2827.78125,
        "wires": [
            [
                "sd_XNIYhftiigmxAvaH"
            ]
        ],
        "generateNext": false,
        "generated": true
    },
    {
        "id": "sd_r9clqTyHagI7G1MP",
        "type": "Comments",
        "z": "sd_fSBMkrTuRPC6wXHh",
        "viewType": "common",
        "nodeType": "flow",
        "name": "Idenity Server Login API",
        "comments": "<p>API used to authenticate users.</p>",
        "x": 685,
        "y": 58.78125,
        "wires": [],
        "generateNext": true
    },
    {
        "id": "sd_YKZCvxS747AZLhQU",
        "type": "Comments",
        "z": "sd_fSBMkrTuRPC6wXHh",
        "viewType": "common",
        "nodeType": "flow",
        "name": "Flow to add href to bh of the Origin",
        "comments": "",
        "x": 664,
        "y": 590.78125,
        "wires": [],
        "generateNext": true
    },
    {
        "id": "sd_Tln8pisbHSJ2uJAZ",
        "type": "Comments",
        "z": "sd_fSBMkrTuRPC6wXHh",
        "viewType": "common",
        "nodeType": "flow",
        "name": "Login Callback API",
        "comments": "<p>After authentication, this is the API called by IDS to get Access token and user info</p>",
        "x": 685,
        "y": 897.2265625,
        "wires": [],
        "generateNext": true
    },
    {
        "id": "sd_q6CWwN1WwIKMrlUn",
        "type": "Comments",
        "z": "sd_fSBMkrTuRPC6wXHh",
        "viewType": "common",
        "nodeType": "flow",
        "name": "IDS Logout API",
        "comments": "<p>API to redirect the user to IDS Logout page</p>",
        "x": 720.0000114440918,
        "y": 1527.226583480835,
        "wires": [],
        "generateNext": true
    },
    {
        "id": "sd_OH2iqoIIukz3QUzA",
        "type": "Comments",
        "z": "sd_fSBMkrTuRPC6wXHh",
        "viewType": "common",
        "nodeType": "flow",
        "name": "Fetch user info",
        "comments": "The API called by neutrinos-oauth-client module internally to fetch user info.",
        "x": 651.2500095367432,
        "y": 1947.2265892028809,
        "wires": [],
        "generateNext": true
    },
    {
        "id": "sd_37gLXNaoJwoNW6LX",
        "type": "Comments",
        "z": "sd_fSBMkrTuRPC6wXHh",
        "viewType": "common",
        "nodeType": "flow",
        "name": "Redirect the user back to Login",
        "comments": "<p>Redirect back to /login if the flow cannot fetch user info or access token.</p>",
        "x": 177.50000381469727,
        "y": 1310.9765815734863,
        "wires": [],
        "generateNext": true
    },
    {
        "id": "sd_jGy0Ogh4t9CrvA4F",
        "type": "Comments",
        "z": "sd_fSBMkrTuRPC6wXHh",
        "viewType": "common",
        "nodeType": "flow",
        "name": "Check Authorization",
        "comments": "Use this middleware flow for all authorized APIs.",
        "x": 813.75,
        "y": 2805.9765625,
        "wires": [],
        "generateNext": true
    },
    {
        "id": "sd_zRHEH9VZcSBQOjXX",
        "type": "Comments",
        "z": "sd_fSBMkrTuRPC6wXHh",
        "viewType": "common",
        "nodeType": "flow",
        "name": "Logout Callback API",
        "comments": "<p>The API redirected by IDS to destroy the user session.</p>",
        "x": 581.25,
        "y": 2288.4765625,
        "wires": [],
        "generateNext": true
    },
    {
        "id": "sd_4JosXwrHu0uuFb40",
        "type": "Catch",
        "z": "sd_fSBMkrTuRPC6wXHh",
        "viewType": "common",
        "nodeType": "start",
        "name": "Catch HandleTokenExpiry",
        "selectedNodes": [
            "sd_uvjzXNbJy9FchJVu"
        ],
        "selectCatchType": "selectednodes",
        "masternodeList": "",
        "x": 765,
        "y": 3260,
        "wires": [
            [
                "sd_RCMM2yUNbSkBk2c2"
            ]
        ],
        "generateNext": true,
        "serviceName": "ids"
    }
]
